Session-Id;UTF8String;Random textual session identifier of user device
\textbf{Auth-Application-Id};Unsigned32;"16777236 (3GPP Rx)
Identification of application interface"
Origin-Host;DiameterIdentity;"rx.pcrf.com
Identifier of origin host preferably in form of domain"
Origin-Realm;DiameterIdentity;"provider.core
Textual origin realm identification"
\textbf{Result-Code};Unsigned32;"2XXX - success
5XXX - failure"
Access-Network-Charging-Identifier;Grouped;...
-> Access-Network-Charging-Identifier-Value;OctetString;3383317636312130
Access-Network-Charging-Address;Address;192.168.0.1
