Session-Id;UTF8String;Random textual session identifier of user device
Auth-Application-Id;Unsigned32;"16777238 (3GPP Gx)
Identification of application interface"
Origin-Host;DiameterIdentity;"gx.pcrf.com
Identifier of origin host preferably in form of domain"
Origin-Realm;DiameterIdentity;"provider.core
Textual origin realm identification"
Result-Code;Unsigned32;"2XXX - success
5XXX - failure"
