Session-Id;UTF8String;Random textual session identifier of user device
\textbf{Auth-Application-Id};Unsigned32;"16777238 (3GPP Gx)
Identification of application interface"
Origin-Host;DiameterIdentity;"gx.pcrf.com
Identifier of origin host preferably in form of domain"
Origin-Realm;DiameterIdentity;"provider.core
Textual origin realm identification"
Destination-Realm;DiameterIdentity;"provider.core
Textual destination realm identification"
\textbf{Destination-Host};DiameterIdentity;"gx.pcrf.com
Identifier of destination host preferably in form of domain"
\textbf{Re-Auth-Request-Type};Enum;AUTHORIZE_ONLY(0)
Event-Trigger;Enum;REVALIDATION_TIMEOUT(17)
Event-Trigger;Enum;PLMN_CHANGE(4)
Event-Trigger;Enum;\seqsplit{CHARGING_CORRELATION_EXCHANGE(28)}
Event-Trigger;Enum;LOSS_OF_BEARER(5)
Event-Trigger;Enum;RECOVERY_OF_BEARER(6)
Charging-Rule-Install;Grouped;...
-> Charging-Rule-Definition;Grouped;...
-> -> Charging-Rule-Name;OctetString;Unique textual name of the installed rule
-> -> Rating-Group;Unsigned32;9000
-> -> Flow-Information;Grouped;...
-> -> -> Flow-Description;IPFilterRule;permit in ip from 100.64.120.34 1264 to 10.225.138.198 10530
-> -> -> Flow-Direction;Enum;UPLINK(2)
-> -> Flow-Information;Grouped;...
-> -> -> Flow-Description;IPFilterRule;permit out ip from 10.225.138.198 10530 to 100.64.120.34 1264
-> -> -> Flow-Direction;Enum;DOWNLINK(1)
-> -> Flow-Status;Enum;ENABLED(2)
-> -> QoS-Information;Grouped;...
-> -> -> QoS-Class-Identifier;Enum;QCI_1(1)
-> -> -> Max-Requested-Bandwidth-UL;Unsigned32;128000
-> -> -> Max-Requested-Bandwidth-DL;Unsigned32;128000
-> -> -> Guaranteed-Bitrate-UL;Unsigned32;128000
-> -> -> Guaranteed-Bitrate-DL;Unsigned32;128000
-> -> -> Allocation-Retention-Priority;Grouped;...
-> -> -> -> Priority-Level;Unsigned32;2
-> -> -> -> Pre-emption-Capability;Enum;\seqsplit{PRE-EMPTION_CAPABILITY_ENABLED(0)}
-> -> -> -> Pre-emption-Vulnerability;Enum;\seqsplit{PRE-EMPTION_VULNERABILITY_DISABLED(1)}
-> -> Online;Enum;DISABLE_ONLINE(0)
-> -> Offline;Enum;ENABLE_OFFLINE(1)
-> -> Precedence;Unsigned32;1
-> -> AF-Charging-Identifier;OctetString;\seqsplit{p8l61246gac44pk6e9c42so5h9ee3rtdc3tamf5ogga455lv5-4}
-> -> Flows;Grouped;...
-> -> -> Media-Component-Number;Unsigned32;701646358
-> -> -> Flow-Number;Unsigned32;1429318516
-> Charging-Rule-Definition;Grouped;...
-> -> Charging-Rule-Name;OctetString;Unique textual name of the installed rule
-> -> Rating-Group;Unsigned32;9000
-> -> Flow-Information;Grouped;...
-> -> -> Flow-Description;IPFilterRule;permit in ip from 100.64.120.34 1265 to 10.225.138.198 10531
-> -> -> Flow-Direction;Enum;UPLINK(2)
-> -> Flow-Information;Grouped;...
-> -> -> Flow-Description;IPFilterRule;permit out ip from 10.225.138.198 10531 to 100.64.120.34 1265
-> -> -> Flow-Direction;Enum;DOWNLINK(1)
-> -> Flow-Status;Enum;ENABLED(2)
-> -> QoS-Information;Grouped;...
-> -> -> QoS-Class-Identifier;Enum;QCI_1(1)
-> -> -> Max-Requested-Bandwidth-UL;Unsigned32;6400
-> -> -> Max-Requested-Bandwidth-DL;Unsigned32;6400
-> -> -> Guaranteed-Bitrate-UL;Unsigned32;6400
-> -> -> Guaranteed-Bitrate-DL;Unsigned32;6400
-> -> -> Allocation-Retention-Priority;Grouped;...
-> -> -> -> Priority-Level;Unsigned32;2
-> -> -> -> Pre-emption-Capability;Enum;\seqsplit{PRE-EMPTION_CAPABILITY_ENABLED(0)}
-> -> -> -> Pre-emption-Vulnerability;Enum;\seqsplit{PRE-EMPTION_VULNERABILITY_DISABLED(1)}
-> -> Online;Enum;DISABLE_ONLINE(0)
-> -> Offline;Enum;ENABLE_OFFLINE(1)
-> -> Precedence;Unsigned32;1
-> -> AF-Charging-Identifier;OctetString;\seqsplit{p8l61246gac44pk6e9c42so5h9ee3rtdc3tamf5ogga455lv5-4}
-> -> Flows;Grouped;...
-> -> -> Media-Component-Number;Unsigned32;701646358
-> -> -> Flow-Number;Unsigned32;1429318517
Revalidation-Time;Time;Feb 17, 2018 10:43:52.000000000
